{
    "build": {
      "arduino": {
          "ldscript": "flash_with_bootloader.ld"
      },
      "core": "arduino",
      "cpu": "cortex-m0plus",
      "extra_flags": "-DARDUINO_SAMD_ZERO -D__SAMD21G18A__",
      "f_cpu": "48000000L",
      "hwids": [
        [
          "0x03EB",
          "0x2111"
        ],
        [
          "0x03EB",
          "0x2141"
        ]
      ],
      "mcu": "samd21g18a",
      "usb_product": "SDU UAS MultiRX v2",
      "variant": "multirx_v2",
      "variants_dir": "custom_variants"
    },
    "debug": {
      "jlink_device": "ATSAMD21G18",
      "onboard_tools": [
        "cmsis-dap"
      ],
      "openocd_chipname": "at91samd21g18",
      "openocd_target": "at91samdXX",
      "svd_path": "ATSAMD21G18A.svd"
    },
    "frameworks": [
      "arduino"
    ],
    "name": "MultiRX V2 (SWD Programming)",
    "upload": {
      "disable_flushing": true,
      "maximum_ram_size": 32768,
      "maximum_size": 262144,
      "native_usb": false,
      "offset_address": "0x2000",
      "protocol": "atmel-ice",
      "protocols": [
        "sam-ba",
        "blackmagic",
        "jlink",
        "atmel-ice"
      ],
      "require_upload_port": false,
      "use_1200bps_touch": false,
      "wait_for_upload_port": false
    },
    "url": "https://gitlab.com/healthdrone/dualrx",
    "vendor": "SDU UAS Center"
  }